RT_STOP
…
replicate_means

## # A tibble: 22 × 4
##    Genotype bw      region_name mean_RPKM
##    <chr>    <chr>   <chr>           <dbl>
##  1 pDA102   SL13.bw region1        96940.
##  2 pDA102   SL13.bw region2       376965.
##  3 pDA102   SN3.bw  region1        80273.
##  4 pDA102   SN3.bw  region2       132696.
##  5 pDA154   SL14.bw region1        95471.
##  6 pDA154   SL14.bw region2       180819.
##  7 pDA154   SL4.bw  region1       200199.
##  8 pDA154   SL4.bw  region2      2074294 
##  9 pDA154   SN4.bw  region1        99653.
## 10 pDA154   SN4.bw  region2       146318.
## # ℹ 12 more rows
…
